EESchema Schematic File Version 4
EELAYER 30 0
EELAYER END
$Descr A4 11693 8268
encoding utf-8
Sheet 1 1
Title ""
Date ""
Rev ""
Comp ""
Comment1 ""
Comment2 ""
Comment3 ""
Comment4 ""
$EndDescr
$Comp
L BMClone:Mini-DIN-4 J4
U 1 1 5FE8A623
P 10150 2300
F 0 "J4" H 10150 2667 50  0000 C CNN
F 1 "Mini-DIN-4" H 10150 2576 50  0000 C CNN
F 2 "adb_conv:TM_0508A" H 10150 2300 50  0001 C CNN
F 3 "http://service.powerdynamics.com/ec/Catalog17/Section%2011.pdf" H 10150 2300 50  0001 C CNN
	1    10150 2300
	1    0    0    -1  
$EndComp
$Comp
L BMClone:USB_A J1
U 1 1 5FE8B1D9
P 1550 3550
F 0 "J1" H 1607 4017 50  0000 C CNN
F 1 "USB_A" H 1607 3926 50  0000 C CNN
F 2 "adb_conv:USB_A_MC32603" H 1700 3500 50  0001 C CNN
F 3 " ~" H 1700 3500 50  0001 C CNN
	1    1550 3550
	1    0    0    -1  
$EndComp
NoConn ~ 1450 3950
$Comp
L power:GND #PWR02
U 1 1 5FE8BA05
P 1550 3950
F 0 "#PWR02" H 1550 3700 50  0001 C CNN
F 1 "GND" H 1555 3777 50  0000 C CNN
F 2 "" H 1550 3950 50  0001 C CNN
F 3 "" H 1550 3950 50  0001 C CNN
	1    1550 3950
	1    0    0    -1  
$EndComp
$Comp
L power:+5V #PWR04
U 1 1 5FE8BF77
P 1950 3250
F 0 "#PWR04" H 1950 3100 50  0001 C CNN
F 1 "+5V" H 1965 3423 50  0000 C CNN
F 2 "" H 1950 3250 50  0001 C CNN
F 3 "" H 1950 3250 50  0001 C CNN
	1    1950 3250
	1    0    0    -1  
$EndComp
Wire Wire Line
	1950 3250 1950 3350
Wire Wire Line
	1950 3350 1850 3350
$Comp
L BMClone:100n C5
U 1 1 5FE8C924
P 2450 2950
F 0 "C5" H 2565 2996 50  0000 L CNN
F 1 "100n" H 2565 2905 50  0000 L CNN
F 2 "Capacitor_SMD:C_0402_1005Metric" H 2488 2800 50  0001 C CNN
F 3 "" H 2450 2950 50  0001 C CNN
F 4 "C1525" H 2450 2950 50  0001 C CNN "LCSC"
	1    2450 2950
	1    0    0    -1  
$EndComp
$Comp
L power:GND #PWR08
U 1 1 5FE8DCA3
P 2450 3100
F 0 "#PWR08" H 2450 2850 50  0001 C CNN
F 1 "GND" H 2455 2927 50  0000 C CNN
F 2 "" H 2450 3100 50  0001 C CNN
F 3 "" H 2450 3100 50  0001 C CNN
	1    2450 3100
	1    0    0    -1  
$EndComp
$Comp
L BMClone:100n C6
U 1 1 5FE8EE3B
P 2700 1350
F 0 "C6" H 2815 1396 50  0000 L CNN
F 1 "100n" H 2815 1305 50  0000 L CNN
F 2 "Capacitor_SMD:C_0402_1005Metric" H 2738 1200 50  0001 C CNN
F 3 "" H 2700 1350 50  0001 C CNN
F 4 "C1525" H 2700 1350 50  0001 C CNN "LCSC"
	1    2700 1350
	1    0    0    -1  
$EndComp
$Comp
L BMClone:100n C4
U 1 1 5FE8F33C
P 2250 1350
F 0 "C4" H 2365 1396 50  0000 L CNN
F 1 "100n" H 2365 1305 50  0000 L CNN
F 2 "Capacitor_SMD:C_0402_1005Metric" H 2288 1200 50  0001 C CNN
F 3 "" H 2250 1350 50  0001 C CNN
F 4 "C1525" H 2250 1350 50  0001 C CNN "LCSC"
	1    2250 1350
	1    0    0    -1  
$EndComp
$Comp
L BMClone:4u7 C2
U 1 1 5FE9022F
P 1500 1350
F 0 "C2" H 1615 1396 50  0000 L CNN
F 1 "4u7" H 1615 1305 50  0000 L CNN
F 2 "Capacitor_SMD:C_0603_1608Metric" H 1538 1200 50  0001 C CNN
F 3 "" H 1500 1350 50  0001 C CNN
F 4 "C19666" H 1500 1350 50  0001 C CNN "LCSC"
	1    1500 1350
	1    0    0    -1  
$EndComp
$Comp
L power:GND #PWR07
U 1 1 5FE90792
P 2450 1500
F 0 "#PWR07" H 2450 1250 50  0001 C CNN
F 1 "GND" H 2455 1327 50  0000 C CNN
F 2 "" H 2450 1500 50  0001 C CNN
F 3 "" H 2450 1500 50  0001 C CNN
	1    2450 1500
	1    0    0    -1  
$EndComp
Wire Wire Line
	2450 1500 2250 1500
Connection ~ 2250 1500
Connection ~ 2250 1200
Wire Wire Line
	2700 1200 2450 1200
Connection ~ 2450 1500
$Comp
L power:+3.3V #PWR06
U 1 1 5FE91EBF
P 2450 1200
F 0 "#PWR06" H 2450 1050 50  0001 C CNN
F 1 "+3.3V" H 2465 1373 50  0000 C CNN
F 2 "" H 2450 1200 50  0001 C CNN
F 3 "" H 2450 1200 50  0001 C CNN
	1    2450 1200
	1    0    0    -1  
$EndComp
Connection ~ 2450 1200
Wire Wire Line
	2450 1200 2250 1200
$Comp
L power:+3.3V #PWR017
U 1 1 5FE923BD
P 4200 2550
F 0 "#PWR017" H 4200 2400 50  0001 C CNN
F 1 "+3.3V" H 4215 2723 50  0000 C CNN
F 2 "" H 4200 2550 50  0001 C CNN
F 3 "" H 4200 2550 50  0001 C CNN
	1    4200 2550
	1    0    0    -1  
$EndComp
$Comp
L power:GND #PWR016
U 1 1 5FE9317B
P 4100 4100
F 0 "#PWR016" H 4100 3850 50  0001 C CNN
F 1 "GND" H 4105 3927 50  0000 C CNN
F 2 "" H 4100 4100 50  0001 C CNN
F 3 "" H 4100 4100 50  0001 C CNN
	1    4100 4100
	1    0    0    -1  
$EndComp
$Comp
L BMClone:4K7 R1
U 1 1 5FE9515F
P 3300 4050
F 0 "R1" H 3370 4096 50  0000 L CNN
F 1 "4K7" H 3370 4005 50  0000 L CNN
F 2 "Resistor_SMD:R_0402_1005Metric" V 3230 4050 50  0001 C CNN
F 3 "" H 3300 4050 50  0001 C CNN
F 4 "C25900" H 3300 4050 50  0001 C CNN "LCSC"
	1    3300 4050
	1    0    0    -1  
$EndComp
Wire Wire Line
	3700 3900 3300 3900
$Comp
L power:GND #PWR012
U 1 1 5FE977A0
P 3300 4200
F 0 "#PWR012" H 3300 3950 50  0001 C CNN
F 1 "GND" H 3305 4027 50  0000 C CNN
F 2 "" H 3300 4200 50  0001 C CNN
F 3 "" H 3300 4200 50  0001 C CNN
	1    3300 4200
	1    0    0    -1  
$EndComp
Wire Wire Line
	2450 2800 3700 2800
Wire Wire Line
	3300 3900 3050 3900
Connection ~ 3300 3900
$Comp
L power:+3.3V #PWR010
U 1 1 5FE9A96E
P 2950 3900
F 0 "#PWR010" H 2950 3750 50  0001 C CNN
F 1 "+3.3V" H 2950 4050 50  0000 C CNN
F 2 "" H 2950 3900 50  0001 C CNN
F 3 "" H 2950 3900 50  0001 C CNN
	1    2950 3900
	1    0    0    -1  
$EndComp
$Comp
L Connector:Conn_01x02_Male J3
U 1 1 5FE994CB
P 2950 4100
F 0 "J3" V 3104 3912 50  0000 R CNN
F 1 "Conn_01x02_Male" V 2900 4400 50  0000 R CNN
F 2 "Connector_PinHeader_2.54mm:PinHeader_1x02_P2.54mm_Vertical" H 2950 4100 50  0001 C CNN
F 3 "~" H 2950 4100 50  0001 C CNN
	1    2950 4100
	0    -1   -1   0   
$EndComp
$Comp
L BMClone:AO3400A Q3
U 1 1 5FE9F3B2
P 7300 4400
F 0 "Q3" H 7505 4446 50  0000 L CNN
F 1 "AO3400A" H 7505 4355 50  0000 L CNN
F 2 "Package_TO_SOT_SMD:SOT-23" H 7500 4325 50  0001 L CIN
F 3 "https://www.onsemi.com/pub/Collateral/BSS138-D.PDF" H 7300 4400 50  0001 L CNN
F 4 "C20917" H 7300 4400 50  0001 C CNN "LCSC"
	1    7300 4400
	-1   0    0    -1  
$EndComp
Text Label 7500 4400 0    50   ~ 0
ADB_DATA
Text Label 7500 3000 0    50   ~ 0
ADB_PSW
$Comp
L power:GND #PWR023
U 1 1 5FEA202A
P 7200 4600
F 0 "#PWR023" H 7200 4350 50  0001 C CNN
F 1 "GND" H 7205 4427 50  0000 C CNN
F 2 "" H 7200 4600 50  0001 C CNN
F 3 "" H 7200 4600 50  0001 C CNN
	1    7200 4600
	1    0    0    -1  
$EndComp
$Comp
L BMClone:4K7 R7
U 1 1 5FEA2B39
P 7200 4050
F 0 "R7" H 7270 4096 50  0000 L CNN
F 1 "4K7" H 7270 4005 50  0000 L CNN
F 2 "Resistor_SMD:R_0402_1005Metric" V 7130 4050 50  0001 C CNN
F 3 "" H 7200 4050 50  0001 C CNN
F 4 "C25900" H 7200 4050 50  0001 C CNN "LCSC"
	1    7200 4050
	1    0    0    -1  
$EndComp
Text Label 6900 4200 2    50   ~ 0
ADB_DATA_IN
Wire Wire Line
	6900 4200 7200 4200
Text Label 6700 1500 2    50   ~ 0
ADB_DATA_OUT
$Comp
L BMClone:AO3400A Q1
U 1 1 5FEA587A
P 6900 1500
F 0 "Q1" H 7105 1546 50  0000 L CNN
F 1 "AO3400A" H 7105 1455 50  0000 L CNN
F 2 "Package_TO_SOT_SMD:SOT-23" H 7100 1425 50  0001 L CIN
F 3 "https://www.onsemi.com/pub/Collateral/BSS138-D.PDF" H 6900 1500 50  0001 L CNN
F 4 "C20917" H 6900 1500 50  0001 C CNN "LCSC"
	1    6900 1500
	1    0    0    -1  
$EndComp
$Comp
L power:GND #PWR019
U 1 1 5FEA7FB7
P 7000 1700
F 0 "#PWR019" H 7000 1450 50  0001 C CNN
F 1 "GND" H 7005 1527 50  0000 C CNN
F 2 "" H 7000 1700 50  0001 C CNN
F 3 "" H 7000 1700 50  0001 C CNN
	1    7000 1700
	1    0    0    -1  
$EndComp
Text Label 7450 1300 0    50   ~ 0
ADB_DATA
$Comp
L BMClone:4K7 R5
U 1 1 5FEA92DF
P 7050 1050
F 0 "R5" H 7120 1096 50  0000 L CNN
F 1 "4K7" H 7120 1005 50  0000 L CNN
F 2 "Resistor_SMD:R_0402_1005Metric" V 6980 1050 50  0001 C CNN
F 3 "" H 7050 1050 50  0001 C CNN
F 4 "C25900" H 7050 1050 50  0001 C CNN "LCSC"
	1    7050 1050
	1    0    0    -1  
$EndComp
$Comp
L BMClone:4K7 R4
U 1 1 5FEA9E64
P 6950 1050
F 0 "R4" H 7020 1096 50  0000 L CNN
F 1 "4K7" H 7020 1005 50  0000 L CNN
F 2 "Resistor_SMD:R_0402_1005Metric" V 6880 1050 50  0001 C CNN
F 3 "" H 6950 1050 50  0001 C CNN
F 4 "C25900" H 6950 1050 50  0001 C CNN "LCSC"
	1    6950 1050
	-1   0    0    -1  
$EndComp
Wire Wire Line
	6950 900  7000 900 
$Comp
L power:+5V #PWR018
U 1 1 5FEAC489
P 7000 900
F 0 "#PWR018" H 7000 750 50  0001 C CNN
F 1 "+5V" H 7015 1073 50  0000 C CNN
F 2 "" H 7000 900 50  0001 C CNN
F 3 "" H 7000 900 50  0001 C CNN
	1    7000 900 
	1    0    0    -1  
$EndComp
Connection ~ 7000 900 
Wire Wire Line
	7000 900  7050 900 
Wire Wire Line
	7000 1200 7000 1300
Connection ~ 7000 1200
Wire Wire Line
	7000 1200 6950 1200
Wire Wire Line
	7000 1300 7450 1300
Connection ~ 7000 1300
Wire Wire Line
	7050 1200 7000 1200
Text Label 4900 3600 0    50   ~ 0
USB_D-
Text Label 4900 3700 0    50   ~ 0
USB_D+
Text Label 1850 3650 0    50   ~ 0
USB_D-
Text Label 1850 3550 0    50   ~ 0
USB_D+
$Comp
L BMClone:STM32F042F4Px U2
U 1 1 5FEB2782
P 4300 3300
F 0 "U2" H 4850 2600 50  0000 C CNN
F 1 "STM32F042F4Px" H 4600 2500 50  0000 C CNN
F 2 "Package_SO:TSSOP-20_4.4x6.5mm_P0.65mm" H 3800 2600 50  0001 R CNN
F 3 "http://www.st.com/st-web-ui/static/active/en/resource/technical/document/datasheet/DM00105814.pdf" H 4300 3300 50  0001 C CNN
F 4 "C81002" H 4300 3300 50  0001 C CNN "LCSC"
	1    4300 3300
	1    0    0    -1  
$EndComp
Wire Wire Line
	2450 1500 2700 1500
Wire Wire Line
	4200 2550 4200 2600
Wire Wire Line
	4100 2600 4200 2600
Connection ~ 4200 2600
NoConn ~ 3700 3500
NoConn ~ 3700 3600
Text Label 4900 3800 0    50   ~ 0
SWDIO
Text Label 4900 3900 0    50   ~ 0
SWCLK
Connection ~ 7200 4200
$Comp
L power:+3.3V #PWR022
U 1 1 5FEBE480
P 7200 3900
F 0 "#PWR022" H 7200 3750 50  0001 C CNN
F 1 "+3.3V" H 7215 4073 50  0000 C CNN
F 2 "" H 7200 3900 50  0001 C CNN
F 3 "" H 7200 3900 50  0001 C CNN
	1    7200 3900
	1    0    0    -1  
$EndComp
Text Label 6900 4200 2    50   ~ 0
ADB_DATA_IN
Text Label 4900 3400 0    50   ~ 0
ADB_DATA_IN
Text Label 4900 3500 0    50   ~ 0
ADB_DATA_OUT
Text Label 3200 2800 0    50   ~ 0
~RST
Text Label 4900 3100 0    50   ~ 0
UART_RX
Text Label 4900 3000 0    50   ~ 0
UART_TX
$Comp
L power:+5V #PWR01
U 1 1 5FEC028A
P 1150 2050
F 0 "#PWR01" H 1150 1900 50  0001 C CNN
F 1 "+5V" H 1165 2223 50  0000 C CNN
F 2 "" H 1150 2050 50  0001 C CNN
F 3 "" H 1150 2050 50  0001 C CNN
	1    1150 2050
	1    0    0    -1  
$EndComp
Wire Wire Line
	1150 2050 1300 2050
$Comp
L power:GND #PWR03
U 1 1 5FEC0C87
P 1600 2350
F 0 "#PWR03" H 1600 2100 50  0001 C CNN
F 1 "GND" H 1605 2177 50  0000 C CNN
F 2 "" H 1600 2350 50  0001 C CNN
F 3 "" H 1600 2350 50  0001 C CNN
	1    1600 2350
	1    0    0    -1  
$EndComp
$Comp
L power:+3.3V #PWR05
U 1 1 5FEC1018
P 2050 2050
F 0 "#PWR05" H 2050 1900 50  0001 C CNN
F 1 "+3.3V" H 2065 2223 50  0000 C CNN
F 2 "" H 2050 2050 50  0001 C CNN
F 3 "" H 2050 2050 50  0001 C CNN
	1    2050 2050
	1    0    0    -1  
$EndComp
Wire Wire Line
	2050 2050 1900 2050
$Comp
L BMClone:4u7 C1
U 1 1 5FEC1AD7
P 1100 1350
F 0 "C1" H 1215 1396 50  0000 L CNN
F 1 "4u7" H 1215 1305 50  0000 L CNN
F 2 "Capacitor_SMD:C_0603_1608Metric" H 1138 1200 50  0001 C CNN
F 3 "" H 1100 1350 50  0001 C CNN
F 4 "C19666" H 1100 1350 50  0001 C CNN "LCSC"
	1    1100 1350
	1    0    0    -1  
$EndComp
Wire Wire Line
	1500 1200 1100 1200
Connection ~ 1500 1200
Wire Wire Line
	1100 1500 1500 1500
Connection ~ 1500 1500
$Comp
L BMClone:ST_LINK_CONN J2
U 1 1 5FEC41C7
P 2500 4950
F 0 "J2" H 2583 5465 50  0000 C CNN
F 1 "ST_LINK_CONN" H 2583 5374 50  0000 C CNN
F 2 "Connector_PinHeader_2.54mm:PinHeader_1x06_P2.54mm_Vertical" H 2200 4900 50  0001 C CNN
F 3 "" H 2200 4900 50  0001 C CNN
	1    2500 4950
	1    0    0    -1  
$EndComp
$Comp
L power:+3.3V #PWR011
U 1 1 5FEC44B4
P 3050 4650
F 0 "#PWR011" H 3050 4500 50  0001 C CNN
F 1 "+3.3V" H 3050 4800 50  0000 C CNN
F 2 "" H 3050 4650 50  0001 C CNN
F 3 "" H 3050 4650 50  0001 C CNN
	1    3050 4650
	1    0    0    -1  
$EndComp
Wire Wire Line
	3050 4650 3050 4700
Wire Wire Line
	3050 4700 2900 4700
Text Label 2900 4800 0    50   ~ 0
SWDIO
Text Label 2900 4900 0    50   ~ 0
SWCLK
Text Label 2900 5100 0    50   ~ 0
~RST
NoConn ~ 2900 5000
$Comp
L power:GND #PWR09
U 1 1 5FEC5A68
P 2900 5200
F 0 "#PWR09" H 2900 4950 50  0001 C CNN
F 1 "GND" H 2905 5027 50  0000 C CNN
F 2 "" H 2900 5200 50  0001 C CNN
F 3 "" H 2900 5200 50  0001 C CNN
	1    2900 5200
	1    0    0    -1  
$EndComp
$Comp
L BMClone:AO3400A Q2
U 1 1 5FEC5CDF
P 7300 3000
F 0 "Q2" H 7505 3046 50  0000 L CNN
F 1 "AO3400A" H 7505 2955 50  0000 L CNN
F 2 "Package_TO_SOT_SMD:SOT-23" H 7500 2925 50  0001 L CIN
F 3 "https://www.onsemi.com/pub/Collateral/BSS138-D.PDF" H 7300 3000 50  0001 L CNN
F 4 "C20917" H 7300 3000 50  0001 C CNN "LCSC"
	1    7300 3000
	-1   0    0    -1  
$EndComp
$Comp
L power:GND #PWR021
U 1 1 5FEC65C9
P 7200 3200
F 0 "#PWR021" H 7200 2950 50  0001 C CNN
F 1 "GND" H 7205 3027 50  0000 C CNN
F 2 "" H 7200 3200 50  0001 C CNN
F 3 "" H 7200 3200 50  0001 C CNN
	1    7200 3200
	1    0    0    -1  
$EndComp
$Comp
L BMClone:4K7 R6
U 1 1 5FEC74FE
P 7200 2650
F 0 "R6" H 7270 2696 50  0000 L CNN
F 1 "4K7" H 7270 2605 50  0000 L CNN
F 2 "Resistor_SMD:R_0402_1005Metric" V 7130 2650 50  0001 C CNN
F 3 "" H 7200 2650 50  0001 C CNN
F 4 "C25900" H 7200 2650 50  0001 C CNN "LCSC"
	1    7200 2650
	1    0    0    -1  
$EndComp
$Comp
L power:+3.3V #PWR020
U 1 1 5FEC7504
P 7200 2500
F 0 "#PWR020" H 7200 2350 50  0001 C CNN
F 1 "+3.3V" H 7215 2673 50  0000 C CNN
F 2 "" H 7200 2500 50  0001 C CNN
F 3 "" H 7200 2500 50  0001 C CNN
	1    7200 2500
	1    0    0    -1  
$EndComp
Wire Wire Line
	7200 2800 6850 2800
Connection ~ 7200 2800
Text Label 6850 2800 2    50   ~ 0
PSW_IN
Text Label 4900 2900 0    50   ~ 0
PSW_IN
$Comp
L BMClone:RED_0603 D2
U 1 1 5FECC1F9
P 4100 1750
F 0 "D2" V 4139 1632 50  0000 R CNN
F 1 "RED_0603" V 4048 1632 50  0000 R CNN
F 2 "LED_SMD:LED_0603_1608Metric" H 4100 1750 50  0001 C CNN
F 3 "https://datasheet.lcsc.com/szlcsc/Hubei-KENTO-Elec-KT-0603R_C2286.pdf" H 4100 1750 50  0001 C CNN
F 4 "C2286" H 4100 1750 50  0001 C CNN "LCSC"
	1    4100 1750
	0    -1   -1   0   
$EndComp
$Comp
L BMClone:RED_0603 D1
U 1 1 5FECD1E1
P 3750 1750
F 0 "D1" V 3789 1632 50  0000 R CNN
F 1 "RED_0603" V 3698 1632 50  0000 R CNN
F 2 "LED_SMD:LED_0603_1608Metric" H 3750 1750 50  0001 C CNN
F 3 "https://datasheet.lcsc.com/szlcsc/Hubei-KENTO-Elec-KT-0603R_C2286.pdf" H 3750 1750 50  0001 C CNN
F 4 "C2286" H 3750 1750 50  0001 C CNN "LCSC"
	1    3750 1750
	0    -1   -1   0   
$EndComp
$Comp
L power:GND #PWR014
U 1 1 5FECD975
P 3750 1900
F 0 "#PWR014" H 3750 1650 50  0001 C CNN
F 1 "GND" H 3755 1727 50  0000 C CNN
F 2 "" H 3750 1900 50  0001 C CNN
F 3 "" H 3750 1900 50  0001 C CNN
	1    3750 1900
	1    0    0    -1  
$EndComp
$Comp
L power:GND #PWR015
U 1 1 5FECDC93
P 4100 1900
F 0 "#PWR015" H 4100 1650 50  0001 C CNN
F 1 "GND" H 4105 1727 50  0000 C CNN
F 2 "" H 4100 1900 50  0001 C CNN
F 3 "" H 4100 1900 50  0001 C CNN
	1    4100 1900
	1    0    0    -1  
$EndComp
$Comp
L power:+3.3V #PWR013
U 1 1 5FECEF31
P 3750 1300
F 0 "#PWR013" H 3750 1150 50  0001 C CNN
F 1 "+3.3V" H 3765 1473 50  0000 C CNN
F 2 "" H 3750 1300 50  0001 C CNN
F 3 "" H 3750 1300 50  0001 C CNN
	1    3750 1300
	1    0    0    -1  
$EndComp
$Comp
L BMClone:680R R2
U 1 1 5FED0146
P 3750 1450
F 0 "R2" H 3820 1496 50  0000 L CNN
F 1 "680R" H 3820 1405 50  0000 L CNN
F 2 "Resistor_SMD:R_0402_1005Metric" V 3680 1450 50  0001 C CNN
F 3 "" H 3750 1450 50  0001 C CNN
F 4 "C25130" H 3750 1450 50  0001 C CNN "LCSC"
	1    3750 1450
	1    0    0    -1  
$EndComp
$Comp
L BMClone:680R R3
U 1 1 5FED107E
P 4100 1450
F 0 "R3" H 4170 1496 50  0000 L CNN
F 1 "680R" H 4170 1405 50  0000 L CNN
F 2 "Resistor_SMD:R_0402_1005Metric" V 4030 1450 50  0001 C CNN
F 3 "" H 4100 1450 50  0001 C CNN
F 4 "C25130" H 4100 1450 50  0001 C CNN "LCSC"
	1    4100 1450
	1    0    0    -1  
$EndComp
Text Label 4900 2800 0    50   ~ 0
LED
Text Label 4100 1300 1    50   ~ 0
LED
Wire Wire Line
	9850 2300 9850 2600
Wire Wire Line
	10450 2200 10900 2200
$Comp
L Jumper:SolderJumper_3_Open JP3
U 1 1 60051F07
P 10850 2750
F 0 "JP3" V 10896 2817 50  0000 L CNN
F 1 "SolderJumper_3_Open" V 10805 2817 50  0000 L CNN
F 2 "Jumper:SolderJumper-3_P1.3mm_Open_RoundedPad1.0x1.5mm_NumberLabels" H 10850 2750 50  0001 C CNN
F 3 "~" H 10850 2750 50  0001 C CNN
	1    10850 2750
	0    1    -1   0   
$EndComp
Text Label 10850 2550 2    50   ~ 0
ADB_DATA
Text Label 10850 2950 0    50   ~ 0
ADB_PSW
Wire Wire Line
	9850 2600 9450 2600
$Comp
L Jumper:SolderJumper_3_Open JP2
U 1 1 60049163
P 9300 2600
F 0 "JP2" V 9346 2667 50  0000 L CNN
F 1 "SolderJumper_3_Open" V 9255 2667 50  0000 L CNN
F 2 "Jumper:SolderJumper-3_P1.3mm_Open_RoundedPad1.0x1.5mm_NumberLabels" H 9300 2600 50  0001 C CNN
F 3 "~" H 9300 2600 50  0001 C CNN
	1    9300 2600
	0    -1   -1   0   
$EndComp
Text Label 9300 2400 0    50   ~ 0
ADB_DATA
Text Label 9300 2800 2    50   ~ 0
ADB_PSW
Wire Wire Line
	9050 2200 9850 2200
$Comp
L Jumper:SolderJumper_3_Open JP1
U 1 1 60041AD4
P 8900 2200
F 0 "JP1" V 8946 2267 50  0000 L CNN
F 1 "SolderJumper_3_Open" V 8855 2267 50  0000 L CNN
F 2 "Jumper:SolderJumper-3_P1.3mm_Open_RoundedPad1.0x1.5mm_NumberLabels" H 8900 2200 50  0001 C CNN
F 3 "~" H 8900 2200 50  0001 C CNN
	1    8900 2200
	0    -1   -1   0   
$EndComp
$Comp
L power:+5V #PWR025
U 1 1 5FEDB7BD
P 8900 2000
F 0 "#PWR025" H 8900 1850 50  0001 C CNN
F 1 "+5V" H 8915 2173 50  0000 C CNN
F 2 "" H 8900 2000 50  0001 C CNN
F 3 "" H 8900 2000 50  0001 C CNN
	1    8900 2000
	1    0    0    -1  
$EndComp
$Comp
L power:GND #PWR024
U 1 1 5FED7786
P 8900 2400
F 0 "#PWR024" H 8900 2150 50  0001 C CNN
F 1 "GND" H 8905 2227 50  0000 C CNN
F 2 "" H 8900 2400 50  0001 C CNN
F 3 "" H 8900 2400 50  0001 C CNN
	1    8900 2400
	1    0    0    -1  
$EndComp
$Comp
L Jumper:SolderJumper_3_Open JP4
U 1 1 6004FDB1
P 11050 2200
F 0 "JP4" V 11096 2267 50  0000 L CNN
F 1 "SolderJumper_3_Open" V 11005 2267 50  0000 L CNN
F 2 "Jumper:SolderJumper-3_P1.3mm_Open_RoundedPad1.0x1.5mm_NumberLabels" H 11050 2200 50  0001 C CNN
F 3 "~" H 11050 2200 50  0001 C CNN
	1    11050 2200
	0    1    -1   0   
$EndComp
$Comp
L power:+5V #PWR026
U 1 1 6004FDAB
P 11050 2000
F 0 "#PWR026" H 11050 1850 50  0001 C CNN
F 1 "+5V" H 11065 2173 50  0000 C CNN
F 2 "" H 11050 2000 50  0001 C CNN
F 3 "" H 11050 2000 50  0001 C CNN
	1    11050 2000
	-1   0    0    -1  
$EndComp
$Comp
L power:GND #PWR027
U 1 1 6004FDA5
P 11050 2400
F 0 "#PWR027" H 11050 2150 50  0001 C CNN
F 1 "GND" H 11055 2227 50  0000 C CNN
F 2 "" H 11050 2400 50  0001 C CNN
F 3 "" H 11050 2400 50  0001 C CNN
	1    11050 2400
	-1   0    0    -1  
$EndComp
Wire Wire Line
	10450 2300 10600 2300
Wire Wire Line
	10600 2300 10600 2750
Wire Wire Line
	10600 2750 10700 2750
Wire Wire Line
	1500 1200 1900 1200
Wire Wire Line
	1500 1500 1900 1500
$Comp
L BMClone:100n C3
U 1 1 60161E12
P 1900 1350
F 0 "C3" H 2015 1396 50  0000 L CNN
F 1 "100n" H 2015 1305 50  0000 L CNN
F 2 "Capacitor_SMD:C_0402_1005Metric" H 1938 1200 50  0001 C CNN
F 3 "" H 1900 1350 50  0001 C CNN
F 4 "C1525" H 1900 1350 50  0001 C CNN "LCSC"
	1    1900 1350
	1    0    0    -1  
$EndComp
Connection ~ 1900 1200
Wire Wire Line
	1900 1200 2250 1200
Connection ~ 1900 1500
Wire Wire Line
	1900 1500 2250 1500
$Comp
L BMClone:HT75xx-1-SOT89 U1
U 1 1 60183D46
P 1600 2150
F 0 "U1" H 1600 2517 50  0000 C CNN
F 1 "HT75xx-1-SOT89" H 1600 2426 50  0000 C CNN
F 2 "Package_TO_SOT_SMD:SOT-89-3" H 1600 2475 50  0001 C CIN
F 3 "https://www.holtek.com/documents/10179/116711/HT75xx-1v250.pdf" H 1600 2250 50  0001 C CNN
F 4 "C14289" H 1600 2150 50  0001 C CNN "LCSC"
	1    1600 2150
	1    0    0    -1  
$EndComp
Wire Wire Line
	10400 2450 10400 2900
Wire Wire Line
	10400 2900 10150 2900
$Comp
L power:GND #PWR0101
U 1 1 601DF096
P 10150 3300
F 0 "#PWR0101" H 10150 3050 50  0001 C CNN
F 1 "GND" H 10155 3127 50  0000 C CNN
F 2 "" H 10150 3300 50  0001 C CNN
F 3 "" H 10150 3300 50  0001 C CNN
	1    10150 3300
	1    0    0    -1  
$EndComp
$Comp
L Jumper:Jumper_2_Open JP5
U 1 1 601E219D
P 10150 3100
F 0 "JP5" V 10104 3012 50  0000 R CNN
F 1 "Jumper_2_Open" V 10195 3012 50  0000 R CNN
F 2 "Resistor_SMD:R_0805_2012Metric" H 10150 3100 50  0001 C CNN
F 3 "~" H 10150 3100 50  0001 C CNN
	1    10150 3100
	0    -1   1    0   
$EndComp
$EndSCHEMATC
